Single_Port_RAM/hw/hw.sim/sim_1/behav/xsim/simulate.log
Time resolution is 1 ps
Applying reset...
Time=0: clk=0, reset=1, we=0, addr= 0, din=  0, dout=  x
Time=5000: clk=1, reset=1, we=0, addr= 0, din=  0, dout=  0
Time=10000: clk=0, reset=1, we=0, addr= 0, din=  0, dout=  0
Time=15000: clk=1, reset=1, we=0, addr= 0, din=  0, dout=  0
Time=20000: clk=0, reset=1, we=0, addr= 0, din=  0, dout=  0
Time=25000: clk=1, reset=0, we=0, addr= 0, din=  0, dout=  x
Time=30000: clk=0, reset=0, we=0, addr= 0, din=  0, dout=  x
Reset released. Starting test...
--- Writing to RAM ---
Time=35000: clk=1, reset=0, we=1, addr= 0, din=  8, dout=  x
Time=40000: clk=0, reset=0, we=1, addr= 0, din=  8, dout=  x
Time=45000: clk=1, reset=0, we=1, addr= 5, din= 42, dout=  8
Time=50000: clk=0, reset=0, we=1, addr= 5, din= 42, dout=  8
Time=55000: clk=1, reset=0, we=1, addr=15, din=255, dout= 42
Time=60000: clk=0, reset=0, we=1, addr=15, din=255, dout= 42
Time=65000: clk=1, reset=0, we=0, addr=15, din=255, dout=255
Time=70000: clk=0, reset=0, we=0, addr=15, din=255, dout=255
--- Reading from RAM ---
Time=75000: clk=1, reset=0, we=0, addr= 0, din=255, dout=255
Time=80000: clk=0, reset=0, we=0, addr= 0, din=255, dout=255
Reading from address 0. Expected: 8, Got: 255
Time=85000: clk=1, reset=0, we=0, addr= 5, din=255, dout=  8
Time=90000: clk=0, reset=0, we=0, addr= 5, din=255, dout=  8
Reading from address 5. Expected: 42, Got:   8
Time=95000: clk=1, reset=0, we=0, addr=15, din=255, dout= 42
Time=100000: clk=0, reset=0, we=0, addr=15, din=255, dout= 42
Reading from address 15. Expected: 255, Got:  42
Time=105000: clk=1, reset=0, we=0, addr= 8, din=255, dout=255
Time=110000: clk=0, reset=0, we=0, addr= 8, din=255, dout=255
Reading from address 8. Expected: Unknown, Got: 255
Time=115000: clk=1, reset=0, we=0, addr= 8, din=255, dout=  x
Time=120000: clk=0, reset=0, we=0, addr= 8, din=255, dout=  x
Test finished.
$finish called at time : 125 ns : File "/home/aditya/Vivado_ViitisProjects/Single_Port_RAM/hw/hw.srcs/sources_1/new/tb.v" Line 96
